module yandex-ggle-auto

go 1.18

require (
	github.com/golang/mock v1.6.0
	github.com/gorilla/mux v1.8.0
	github.com/tidwall/gjson v1.14.3
	golang.org/x/net v0.0.0-20221014081412-f15817d10f9b
	golang.org/x/oauth2 v0.0.0-20221006150949-b44042a4b9c1
	google.golang.org/api v0.98.0
)

require (
	cloud.google.com/go/compute v1.7.0 // indirect
	github.com/golang/groupcache v0.0.0-20200121045136-8c9f03a8e57e // indirect
	github.com/golang/protobuf v1.5.2 // indirect
	github.com/google/uuid v1.3.0 // indirect
	github.com/googleapis/enterprise-certificate-proxy v0.1.0 // indirect
	github.com/googleapis/gax-go/v2 v2.4.0 // indirect
	github.com/tidwall/match v1.1.1 // indirect
	github.com/tidwall/pretty v1.2.0 // indirect
	go.opencensus.io v0.23.0 // indirect
	golang.org/x/sys v0.0.0-20220728004956-3c1f35247d10 // indirect
	golang.org/x/text v0.3.7 // indirect
	google.golang.org/appengine v1.6.7 // indirect
	google.golang.org/genproto v0.0.0-20220624142145-8cd45d7dbd1f // indirect
	google.golang.org/grpc v1.47.0 // indirect
	google.golang.org/protobuf v1.28.0 // indirect
)
